<?xml version="1.0" encoding="iso-8859-1"?>
<!-- Generator: Adobe Illustrator 22.1.0, SVG Export Plug-In . SVG Version: 6.00 Build 0)  -->
<svg version="1.1" xmlns="http://www.w3.org/2000/svg" xmlns:xlink="http://www.w3.org/1999/xlink" x="0px" y="0px"
	 viewBox="0 0 2850 1800" style="enable-background:new 0 0 2850 1800;" xml:space="preserve">
<g id="layer7">
	<polygon style="fill:#FF745D;" points="1014.777,1051.486 1266.442,888.731 1343.292,877.569 1450.259,782.075 1597.727,932.138 
		1628.882,917.255 1854.24,1085.921 1425.366,1271.95 	"/>
	<polyline style="fill:#ED5D45;" points="1696.501,1149.899 1586.81,1040.497 1628.999,1170.052 	"/>
	<polygon style="fill:#ED5D45;" points="1450.259,782.075 1343.292,877.569 1266.442,888.731 1014.777,1051.486 1373.754,1257.919 
		1405.163,1019.997 1478.761,1072.979 1439.509,874.533 1471.401,897.97 	"/>
	<polygon style="fill:#ED5D45;" points="1597.727,932.138 1634.159,967.446 1628.882,917.255 	"/>
	<line style="fill:#ED5D45;" x1="1628.999" y1="1170.052" x2="1696.501" y2="1149.899"/>
</g>
<g id="Layer_1">
</g>
</svg>
